| ?- yes
| ?- Running experiments
Executing Goal desired_flight(_h161,t(0)) in program flights.prolog.P
Execution Time: 0.0045 sec (prolog)
Executing Goal preferred1(_h74) in program flights.spec.P
Execution Time: 0.0783 sec (prolog)
Executing Goal preferred(desired_flight)(_h490) in program flights.hilog.P
Execution Time: 0.1464 sec (hilog)
Results match
Executing Goal has_stopover(_h2489,t(0)) in program flights.prolog.P
Execution Time: 0.0016 sec (prolog)
Executing Goal preferred2(_h1090) in program flights.spec.P
Execution Time: 0.0772 sec (prolog)
Executing Goal preferred(has_stopover)(_h1909) in program flights.hilog.P
Execution Time: 0.1483 sec (hilog)
Results match
Executing Goal p(_h5817,_h5818,t(0)) in program paths.prolog.P
Execution Time: 0.0039 sec (prolog)
Executing Goal preferred3(_h5821) in program paths.spec.P
Execution Time: 0.2277 sec (prolog)
Executing Goal preferred(p)(_h6411) in program paths.hilog.P
Execution Time: 0.4596 sec (hilog)
Results match
Executing Goal ppath(_h6955,_h6956,t(0)) in program paths.prolog.P
Execution Time: 0.0416 sec (prolog)
Executing Goal preferred4(_h6959) in program paths.spec.P
Execution Time: 0.3331 sec (prolog)
Executing Goal preferred(ppath)(_h53862) in program paths.hilog.P
Execution Time: 0.6345 sec (hilog)
Results match
Executing Goal flight(_h54796,_h54797,t(0)) in program direct.prolog.P
Execution Time: 0.0452 sec (prolog)
Executing Goal preferred5(_h54800) in program direct.spec.P
Execution Time: 0.1479 sec (prolog)
Executing Goal preferred(flight)(_h67585) in program direct.hilog.P
Execution Time: 0.2490 sec (hilog)
Results match
Executing Goal likes(_h68257,_h68258,0) in program cyclic.prolog.P
Execution Time: 0.0003 sec (prolog)
Executing Goal preferred6(_h68261) in program cyclic.spec.P
Execution Time: 0.0081 sec (prolog)
Executing Goal preferred(likes)(_h68625) in program cyclic.hilog.P
Execution Time: 0.0133 sec (hilog)
Results match
Executing Goal watch(_h68967,t(1)) in program howtrue.prolog.P
Execution Time: 0.0090 sec (prolog)
Executing Goal preferred7(_h68970) in program howtrue.spec.P
Execution Time: 0.0627 sec (prolog)
Executing Goal preferred(watch)(_h70850) in program howtrue.hilog.P
Execution Time: 0.0640 sec (hilog)
Results match
OK
yes
| ?- 