| ?- yes
| ?- Running experiments
Executing Goal desired_flight(_h161,t(0)) in program flights.prolog.P
Execution Time: 0.0045 sec (prolog)
Executing Goal preferred(desired_flight)(_h488) in program flights.hilog.P
Execution Time: 0.1302 sec (hilog)
Results match
Executing Goal has_stopover(_h2487,t(0)) in program flights.prolog.P
Execution Time: 0.0012 sec (prolog)
Executing Goal preferred(has_stopover)(_h3780) in program flights.hilog.P
Execution Time: 0.1012 sec (hilog)
Results match
Executing Goal p(_h7688,_h7689,t(0)) in program paths.prolog.P
Execution Time: 0.0040 sec (prolog)
Executing Goal preferred(p)(_h7920) in program paths.hilog.P
Execution Time: 0.3338 sec (hilog)
Results match
Executing Goal ppath(_h8464,_h8465,t(0)) in program paths.prolog.P
Execution Time: 0.0407 sec (prolog)
Executing Goal preferred(ppath)(_h27166) in program paths.hilog.P
Execution Time: 0.4384 sec (hilog)
Results match
Executing Goal flight(_h28100,_h28101,t(0)) in program direct.prolog.P
Execution Time: 0.0340 sec (prolog)
Executing Goal preferred(flight)(_h34420) in program direct.hilog.P
Execution Time: 0.1845 sec (hilog)
Results match
Executing Goal likes(_h35092,_h35093,0) in program cyclic.prolog.P
Execution Time: 0.0003 sec (prolog)
Executing Goal preferred(likes)(_h35268) in program cyclic.hilog.P
Execution Time: 0.0204 sec (hilog)
Results match
Executing Goal watch(_h35610,t(1)) in program howtrue.prolog.P
Execution Time: 0.0084 sec (prolog)
Executing Goal preferred(watch)(_h36297) in program howtrue.hilog.P
Execution Time: 0.0622 sec (hilog)
Results match
OK
yes
| ?- 