| ?- yes
| ?- Running experiments
Executing Goal desired_flight(_h161,t(0)) in program flights.prolog.P
Execution Time: 0.0040 sec (prolog)
Executing Goal preferred(desired_flight)(_h488) in program flights.hilog.P
Execution Time: 0.1309 sec (hilog)
Results match
Executing Goal has_stopover(_h2487,t(0)) in program flights.prolog.P
Execution Time: 0.0013 sec (prolog)
Executing Goal preferred(has_stopover)(_h1908) in program flights.hilog.P
Execution Time: 0.1270 sec (hilog)
Results match
Executing Goal p(_h5816,_h5817,t(0)) in program paths.prolog.P
Execution Time: 0.0031 sec (prolog)
Executing Goal preferred(p)(_h6048) in program paths.hilog.P
Execution Time: 0.3983 sec (hilog)
Results match
Executing Goal ppath(_h6592,_h6593,t(0)) in program paths.prolog.P
Execution Time: 0.0406 sec (prolog)
Executing Goal preferred(ppath)(_h25294) in program paths.hilog.P
Execution Time: 0.5107 sec (hilog)
Results match
Executing Goal flight(_h26228,_h26229,t(0)) in program direct.prolog.P
Execution Time: 0.0341 sec (prolog)
Executing Goal preferred(flight)(_h32548) in program direct.hilog.P
Execution Time: 0.2393 sec (hilog)
Results match
Executing Goal likes(_h33220,_h33221,0) in program cyclic.prolog.P
Execution Time: 0.0003 sec (prolog)
Executing Goal preferred(likes)(_h33396) in program cyclic.hilog.P
Execution Time: 0.0121 sec (hilog)
Results match
Executing Goal watch(_h33738,t(1)) in program howtrue.prolog.P
Execution Time: 0.0081 sec (prolog)
Executing Goal preferred(watch)(_h34425) in program howtrue.hilog.P
Execution Time: 0.0595 sec (hilog)
Results match
OK
yes
| ?- 